............
----------------------------------------------------------------------
Ran 12 tests in 0.003s

OK
Name                   Stmts   Miss Branch BrPart  Cover   Missing
------------------------------------------------------------------
Diplomacy.py              28      0     14      0   100%
Diplomacy_solver1.py      59      0     31      0   100%
TestDiplomacy.py          54      0      0      0   100%
------------------------------------------------------------------
TOTAL                    141      0     45      0   100%
