FFF
======================================================================
FAIL: test_solve_1 (__main__.TestDiplomacy)
----------------------------------------------------------------------
Traceback (most recent call last):
  File "TestDiplomacy.py", line 18, in test_solve_1
    w.getvalue(), "A Madrid\n")
AssertionError: '' != 'A Madrid\n'
+ A Madrid


======================================================================
FAIL: test_solve_2 (__main__.TestDiplomacy)
----------------------------------------------------------------------
Traceback (most recent call last):
  File "TestDiplomacy.py", line 25, in test_solve_2
    w.getvalue(), "A [dead]\nB Madrid\nC London\n")
AssertionError: '' != 'A [dead]\nB Madrid\nC London\n'
+ A [dead]
+ B Madrid
+ C London


======================================================================
FAIL: test_solve_3 (__main__.TestDiplomacy)
----------------------------------------------------------------------
Traceback (most recent call last):
  File "TestDiplomacy.py", line 32, in test_solve_3
    w.getvalue(), "A [dead]\nB [dead]\n")
AssertionError: '' != 'A [dead]\nB [dead]\n'
+ A [dead]
+ B [dead]


----------------------------------------------------------------------
Ran 3 tests in 0.002s

FAILED (failures=3)
A Madrid
C London
A [dead]
A [dead]
B Madrid
C [dead]
A [dead]
A [dead]
B [dead]
A [dead]
B [dead]
Name               Stmts   Miss Branch BrPart  Cover   Missing
--------------------------------------------------------------
Diplomacy.py          98     16     58      4    81%   47-56, 61-62, 66, 84->81, 130->133, 136-140, 144->exit, 185->180
TestDiplomacy.py      21      0      2      1    96%   34->exit
--------------------------------------------------------------
TOTAL                119     16     60      5    83%
Name               Stmts   Miss Branch BrPart  Cover   Missing
--------------------------------------------------------------
Diplomacy.py          84     31     52     22    42%   75->81, 77, 86-87, 91-109, 115, 122-123, 134-142, 147, 148->149, 152, 153->156, 154, 159, 163, 165, 169->175, 170-171, 175->exit, 176-177, 181, 183->185, 185->188, 188->183, 189-191
TestDiplomacy.py      21      0      2      1    96%   34->exit
--------------------------------------------------------------
TOTAL                105     31     54     23    50%
